{
    "lb_search": "Tìm kiếm theo tên món/mã món",
    "lb_table_layout": "Sơ đồ",
    "lb_order": "Đơn hàng",
    "lb_dish": "Trả món",
    "lb_utility": "Tiện ích",
    "lb_no_data": "Không có dữ liệu",
    "error_unknown": "Có lỗi xảy ra",
    "title_menu_new": "Thêm thực đơn mới",
    "title_menu_modifier": "Chỉnh sửa thực đơn",
    "title_category_new": "Thêm danh mục mới",
    "title_category_modifier": "Chỉnh sửa danh mục",
    "title_menu_item_new": "Thêm món mới",
    "title_menu_item_modifier": "Chỉnh sửa món",
    "lb_menu_name": "Tên thực đơn",
    "lb_category_name": "Tên danh mục",
    "lb_done": "Hoàn thành",
    "lb_save": "Lưu thay đổi",
    "lb_next": "Tiếp tục",
    "lb_menu_contain": "Thuộc thực đơn",
    "lb_select_menu": "Chọn một thực đơn",
    "lb_hint_menu": "VD: Đồ ăn, Đồ uống",
    "lb_status_out_date_today": "Hết bán hôm nay",
    "lb_status_out_date": "Hết bán",
    "lb_setup_menu": "Thiết lập thực đơn",
    "lb_sort": "Sắp xếp",
    "lb_menus": "Các món",
    "lb_modifier": "Tuỳ chọn nhóm",
    "lb_modifier_1": "Nhóm tuỳ chọn",
    "lb_empty_menu": "Thực đơn trống",
    "lb_empty_menu_description": "Bấm thêm mới để tạo thực đơn của nhà hàng bạn",
    "lb_edit_status_cat": "Chỉnh sửa trạng thái thực đơn",
    "lb_edit_status_cat_des": "Bật hoặc tắt món",
    "lb_menu": "danh mục",
    "lb_edit_menu": "Chỉnh sửa danh mục",
    "lb_item": "Món",
    "lb_add_new": "Thêm mới",
    "lb_edit_item": "Chỉnh sửa món",
    "lb_menu_setup_popup_title_1": "Thêm thực đơn mới",
    "lb_menu_setup_popup_subtitle_1": "Danh mục cha, VD: Đồ ăn, Đồ uống, Tráng miệng",
    "lb_menu_setup_popup_title_2": "Thêm danh mục mới",
    "lb_menu_setup_popup_subtitle_2": "Danh mục con, VD: Món ăn nhẹ, Trà truyền thống",
    "lb_menu_setup_popup_title_3": "Thêm món mới",
    "lb_menu_setup_popup_subtitle_3": "VD: Phở, Trà sữa, Cà phê",
    "lb_title_no_data_modifier": "Thiết lập tuỳ chọn theo sở thích của khách hàng",
    "lb_sub_title_no_data_modifier": "Liên kết các nhóm tuỳ chọn (Sở thích phục vụ) với các món trong thực đơn để phục vụ bàn có thể nhanh chóng tạo đơn cho khách.",
    "btn_add_modifier": "Tạo nhóm tuỳ chọn",
    "lb_title_edit_modifier": "Chỉnh sửa trạng thái tuỳ chọn",
    "lb_sub_title_edit_modifier": "Bật hoặc tắt trạng thái nhóm tuỳ chọn",
    "lb_title_count_modifier_first": "Bạn có ",
    "lb_title_count_modifier_last": " nhóm tuỳ chọn",
    "link_btn_edit_modifier": "Chỉnh sửa nhóm tuỳ chọn",
    "link_count_btn_edit_modifier_first": "Liên kết với ",
    "link_count_btn_edit_modifier_last": " món",
    "lb_title_add_modifier": "Tạo nhóm tuỳ chọn",
    "lb_title_add_modifier_edit": "Chỉnh sửa nhóm tuỳ chọn",
    "lb_title_name_of_modifier": "Tên nhóm tuỳ chọn *",
    "lb_placeholder_name_of_modifier": "VD: Topping, kích cỡ, đường",
    "lb_title_modifier_options": "Tuỳ chọn",
    "lb_title_modifier_example_options": "VD: Thạch, lớn, 50% đường",
    "btn_link_add_one_option": "Thêm một tuỳ chọn",
    "btn_finish": "Hoàn thành",
    "btn_edit": "Lưu thay đổi",
    "lb_title_detail_modifier_options": "Chi tiết tuỳ chọn",
    "lb_title_detail_modifier_example_options": "VD: Chọn ít nhất 1 loại, không bắt buộc",
    "lb_title_option_no_required": "Không bắt buộc",
    "lb_title_option_avariable": "Bắt buộc nhiều loại",
    "lb_title_add_modifier_value": "Thêm một tuỳ chọn",
    "lb_title_add_modifier_edit_value": "Chỉnh một tuỳ chọn",
    "lb_title_name_of_modifier_value": "Tên tuỳ chọn *",
    "lb_placeholder_name_of_modifier_value": "VD: Thạch, lớn, 50% đường",
    "lb_title_price_of_modifier_value": "Giá - VND",
    "lb_placeholder_price_of_modifier_value": "0",
    "lb_title_min_value": "Tối thiểu",
    "lb_title_max_value": "Tối đa",
    "lb_title_option_avariable_one": "Bắt buộc chọn 1 loại",
    "lb_title_error": "Có lỗi xảy ra",
    "btn_try_again": "Thử lại",
    "btn_close": "Đóng",
    "lb_delete_menu_title": "Xóa thực đơn",
    "lb_delete_menu_message": "Tất cả món sẽ bị mất nếu bạn xoá thực đơn này",
    "lb_delete_category_title": "Xóa danh mục",
    "lb_delete_category_message": "Tất cả món sẽ bị mất nếu bạn xoá danh mục này",
    "lb_action_delete": "Xóa",
    "lb_action_close": "Đóng",
    "lb_action_save": "Lưu",
    "lb_action_save_continue": "Tiếp tục lưu",
    "lb_action_cancel": "Hủy",
    "lb_action_photos": "Thư mục ảnh",
    "lb_action_camera": "Chụp ảnh",
    "lb_action_next": "Tiếp tục",
    "lb_menu_item_setup_info": "Thông tin",
    "lb_menu_item_setup_category": "Danh mục",
    "lb_menu_item_setup_option": "Tùy chọn",
    "lb_menu_item_setup_upload_image": "Thêm hình ảnh",
    "lb_menu_item_setup_upload_image_desc": "Hình ảnh với chất lượng cao có thể giúp nhân viên thực hiện đặt món dễ dàng hơn. Tệp ảnh nặng tối đa 2MB và chỉ chấp nhận đuôi: PNG, JPEG",
    "lb_menu_item_setup_name": "Tên món *",
    "lb_menu_item_setup_code": "Mã món",
    "lb_menu_item_setup_price": "Giá bán",
    "lb_menu_item_setup_unit": "Đơn vị tính",
    "lb_menu_item_setup_desc": "Mô tả món",
    "lb_menu_item_setup_desc_hint": "Nhập mô tả món",
    "lb_menu_item_setup_display": "Hiển thị trên thực đơn",
    "lb_menu_item_setup_display_desc": "Món ăn sẽ bị ẩn nếu bạn tắt chức năng này",
    "loading": "Đang tải...",
    "lb_cart_ordered": "Đơn đặt",
    "lb_menu_list": "Danh mục thực đơn",
    "lb_delete_menu_modifier_title": "Xoá nhóm tuỳ chọn",
    "lb_delete_menu_modifier_message": "Tất cả tuỳ chọn sẽ bị mất nếu bạn xoá nhóm này",
    "lb_delete_menu_modifier_value_title": "Xoá tuỳ chọn",
    "lb_delete_menu_modifier_value_message": "Xác nhận xoá tuỳ chọn",
    "lb_changed_menu_modifier_title": "Huỷ chỉnh sửa nhóm tuỳ chọn",
    "lb_changed_menu_modifier_message": "Mọi chỉnh sửa sẽ mất nếu thoát",
    "lb_changed_menu_modifier_value_title": "Huỷ chỉnh sửa tuỳ chọn",
    "lb_changed_menu_modifier_value_message": "Mọi chỉnh sửa sẽ mất nếu thoát",
    "lb_action_cancel_changed": "Thoát",
    "mess_option_avariable_one": "Có nghĩa là khách hàng phải chọn 1 loại tuỳ chọn",
    "mess_option_no_required_first": "Có nghĩa là khách hàng có thể chọn tối đa ",
    "mess_option_no_required_last": " tuỳ chọn",
    "mess_option_required_avariable_first": "Có nghĩa là khách hàng phải chọn ít nhất 1 loại  và không quá ",
    "mess_option_required_avariable_last": " loại tuỳ chọn",
    "lb_reorder_menu": "Sắp xếp lại thực đơn",
    "lb_reorder_category": "Sắp xếp lại danh mục",
    "lb_reorder_item": "Sắp xếp món",
    "lb_status_change": "Thay đổi trạng thái",
    "lb_status_change_short": "Đổi trạng thái",
    "lb_dialog_title_normal": "Thông báo",
    "lb_dialog_title_error": "Xác định lỗi",
    "lb_dialog_update_menu_title": "Chỉnh sửa thực đơn",
    "lb_dialog_update_menu_success_mesg": "Chỉnh sửa thực đơn thành công",
    "lb_dialog_create_menu_title": "Tạo mới thực đơn",
    "lb_dialog_delete_menu_title": "Xóa thực đơn",
    "lb_dialog_delete_menu_success_mesg": "Xóa thực đơn thành công.",
    "lb_dialog_delete_menu_confirm_mesg": "Tất cả danh mục, món sẽ bị mất nếu bạn xoá thực đơn này",
    "lb_dialog_update_category_title": "Chỉnh sửa danh mục",
    "lb_dialog_update_category_success_mesg": "Chỉnh sửa danh mục thành công.",
    "lb_dialog_create_category_title": "Tạo mới danh mục",
    "lb_dialog_delete_category_title": "Xóa danh mục",
    "lb_dialog_delete_category_success_mesg": "Xóa danh mục thành công.",
    "lb_dialog_delete_category_confirm_mesg": "Tất cả món sẽ bị mất nếu bạn xoá danh mục này",
    "lb_dialog_update_menu_item_title": "Chỉnh sửa món ăn",
    "lb_dialog_update_menu_item_success_mesg": "Chỉnh sửa món ăn thành công.",
    "lb_dialog_create_menu_item_title": "Tạo mới món ăn",
    "lb_dialog_delete_menu_item_title": "Xóa món ăn",
    "lb_dialog_delete_menu_item_success_mesg": "Xóa món ăn thành công",
    "lb_dialog_delete_menu_item_confirm_mesg": "Bạn có chắc muốn xóa món ăn này?",
    "lb_dialog_exit_menu_modifier_update_changed_title": "Huỷ chỉnh sửa thực đơn",
    "lb_dialog_exit_menu_modifier_update_changed_mesg": "Mọi chỉnh sửa sẽ mất nếu thoát",
    "lb_dialog_exit_category_modifier_update_changed_title": "Huỷ chỉnh sửa danh mục",
    "lb_dialog_exit_category_modifier_update_changed_mesg": "Mọi chỉnh sửa sẽ mất nếu thoát",
    "lb_dialog_exit_menu_item_modifier_update_changed_title": "Huỷ chỉnh sửa món ăn",
    "lb_dialog_exit_menu_item_modifier_update_changed_mesg": "Mọi chỉnh sửa sẽ mất nếu thoát",
    "lb_dialog_exist_menu_title": "Thực đơn đã tồn tại",
    "lb_dialog_exist_menu_mesg": "Thực đơn đã tồn tại trong hệ thống, bạn có muốn tiếp tục tạo thực đơn này",
    "lb_dialog_exist_category_title": "Danh mục đã tồn tại",
    "lb_dialog_exist_category_mesg": "Danh mục đã tồn tại trong hệ thống, bạn có muốn tiếp tục tạo danh mục này",
    "lb_dialog_add_image_title": "Thêm ảnh",
    "lb_dialog_remove_item_order_title": "Xóa sản phẩm",
    "lb_dialog_remove_item_order_mesg_start": "Bạn có muốn xóa",
    "lb_dialog_remove_item_order_mesg_end": "khỏi đơn khách hàng",
    "lb_unlink": "Huỷ liên kết",
    "lb_link": "Liên kết",
    "lb_title_guide_link_to_modifier": "Thêm tuỳ chọn cho món để dễ dàng và nhanh chóng phục vụ khách hàng.",
    "lb_sub_title_guide_link_to_modifier": "Liên kết món với nhóm tuỳ chọn có sẵn hoặc tạo mới từ trang Thiết lập thực đơn",
    "lb_title_option_group_of": "Nhóm tuỳ chọn của ",
    "lb_title_item_option_group_first": "Nhóm tuỳ chọn",
    "lb_title_item_option_group_last": " được liên kết với món này",
    "lb_option_select": "Lựa chọn",
    "lb_changed_menu_reorder_title": "Huỷ sắp xếp",
    "lb_changed_menu_reorder_message": "Mọi thay đổi sẽ bị xoá nếu bạn rời khỏi trang này",
    "lb_general": "Tổng quan",
    "lb_selling_history": "Lịch sử bán hàng",
    "lb_analytics_report": "Thống kê - Báo cáo",
    "lb_setup_store": "Thiết lập cửa hàng",
    "lb_setup_zone_table": "Thiết lập khu vực/bàn",
    "btn_add_new_option": "Thêm",
    "error_name_of_modifier_value": "Tên tùy chọn không hợp lệ",
    "error_name_of_modifier": "Tên nhóm tùy chọn không hợp lệ",
    "msg_insert_modifier_value": "Thêm tuỳ chọn thành công",
    "msg_update_modifier_value": "Sửa tuỳ chọn thành công",
    "msg_delete_modifier_value": "Xoá tuỳ chọn thành công",
    "msg_insert_modifier": "Thêm nhóm tuỳ chọn thành công",
    "msg_update_modifier": "Sửa nhóm tuỳ chọn thành công",
    "msg_delete_modifier": "Xoá nhóm tuỳ chọn thành công",
    "lb_title_modifier_option_group_first": "Món",
    "lb_title_modifier_option_group_last": " được liên kết với nhóm tuỳ chọn này",
    "error_link_item_to_modifier": "Liên kết với món thành công",
    "error_unlink_item_to_modifier": "Hủy liên kết với món",
    "error_link_modifier_to_item": "Liên kết với tùy chọn thành công",
    "error_unlink_modifier_to_item": "Hủy liên kết với tùy chọn",
    "s01": "Chưa thiết lập danh mục",
    "s02": "Chưa thiết lập thực đơn",
    "s03": "Không tìm thấy món nào liên quan đến “Nội dung tìm kiếm”. Vui lòng thử lại.",
    "CFG_UNIT_KILOGRAM": "Kg",
    "CFG_UNIT_KETTLE": "Ấm",
    "CFG_UNIT_PACK": "Bao",
    "CFG_UNIT_BOWL": "Bát",
    "CFG_UNIT_PIECE": "Cái",
    "CFG_UNIT_BOTTLE": "Chai",
    "CFG_UNIT_CUP": "Cốc",
    "CFG_UNIT_A": "Con",
    "CFG_UNIT_BAR": "Gói",
    "CFG_UNIT_DISH": "Đĩa",
    "CFG_UNIT_GRAM": "Gram",
    "CFG_UNIT_CARTON": "Két",
    "CFG_UNIT_CAN": "Lon",
    "CFG_UNIT_GLASS": "Ly",
    "CFG_UNIT_POT": "Nồi",
    "CFG_UNIT_PART": "Phần",
    "CFG_UNIT_FRUIT": "Quả",
    "CFG_UNIT_SCOOP": "Viên",
    "CFG_UNIT_STUBBORN": "Xửng",
    "lb_status_sold_out": "Hết bán",
    "lb_status_avaiable": "Có bán",
    "lb_helper_category_name_blank": "Tên danh mục không được để trống",
    "lb_helper_category_name_invalid": "Tên danh mục từ 3 đến 50 ký tự bao gồm cả chữ, số, khoảng cách và ký tự đặc biệt",
    "lb_helper_menu_item_name_blank": "Tên món  không được để trống",
    "lb_helper_menu_item_name_invalid": "Tên món từ 3 đến 50 ký tự bao gồm cả chữ, số, khoảng cách và ký tự đặc biệt",
    "lb_toast_delete_menu_success": "Thực đơn đã bị xoá",
    "lb_toast_new_menu_success": "Thêm mới thực đơn thành công",
    "lb_toast_edit_menu_success": "Cập nhật thay đổi thành công",
    "lb_toast_new_category_success": "Thêm mới danh mục thành công",
    "lb_toast_edit_category_success": "Cập nhật thay đổi thành công",
    "lb_toast_delete_category_success": "Danh mục đã bị xoá",
    "lb_toast_new_menu_item_success": "Thêm mới món ăn thành công",
    "lb_toast_edit_menu_item_success": "Cập nhật thay đổi thành công",
    "lb_toast_delete_menu_item_success": "Món ăn đã bị xoá",
    "lb_dialog_create_category_success_mesg": "Tạo mới danh mục thành công, bạn có muốn tiếp tục?",
    "lb_dialog_create_menu_item_success_mesg": "Tạo mới món ăn thành công, bạn có muốn tiếp tục?",
    "lb_dialog_create_menu_success_mesg": "Tạo mới thực đơn thành công, bạn có muốn tiếp tục?",
    "lb_helper_menu_name_blank": "Tên thực đơn không được để trống",
    "lb_helper_menu_name_invalid": "Tên thực đơn từ 3 đến 50 ký tự bao gồm cả chữ, số, khoảng cách và ký tự đặc biệt",
    "lb_toast_update_menu_item_status_success": "Cập nhật thay đổi thành công",
    "lb_toast_update_modifier_status_success": "Cập nhật thay đổi thành công",
    "lb_toast_update_ordinal_success": "Cập nhật thay đổi thành công",
    "lb_menu_option_not_required": "Không bắt buộc",
    "lb_menu_option_max_check": "Tối đa",
    "lb_menu_option_required": "Bắt buộc",
    "lb_menu_option_customer_note": "Yêu cầu thêm của khách hàng",
    "lb_menu_option_customer_note_hint": "Nhập yêu cầu thêm của khách tại đây",
    "lb_menu_option_update_item_order": "Cập nhật đơn",
    "lb_menu_option_add_item_order": "Thêm vào đơn đặt",
    "lb_menu_order_dinner": "Ăn tại bàn",
    "lb_menu_order_take_away": "Mang về",
    "lb_menu_order_customer": "Khách hàng",
    "lb_menu_order_table": "Bàn",
    "lb_menu_order_list_item": "Danh sách món",
    "lb_menu_order_item": "món",
    "lb_menu_order_calculate_temp": "Tạm tính:",
    "lb_menu_order_pay": "Thanh Toán",
    "lb_menu_order_order": "Đặt Đơn",
    "lb_menu_order_item_edit": "Chỉnh sửa",
    "lb_menu_order_title": "Đơn khách đặt",
    "lb_menu_order_customer_note_title": "Khách hàng",
    "lb_menu_order_customer_phone": "Số điện thoại",
    "lb_menu_order_customer_phone_hint": "Nhập tại đây",
    "lb_menu_order_customer_done": "Hoàn tất",
    "lb_empty_category": "Danh mục trống",
    "lb_empty_category_item": "Danh sách món trống",

    "lb_error_camera": "Không thể mở Máy ảnh! Xin vui lòng thử lại!",
    "lb_retry": "Thử lại"
}